"#","R/W","Address","B1","B2","B3","Remark1","Remark2"
6,"W","27","00","DC","DA","Set Input(1)/Output(0) A: 1101 1100","Set Input(1)/Output(0) B: 1101 1010"
7,"W","27","02","00","00","Set Polarity A: 0000 0000","Set Polarity B: 0000 0000"
8,"W","27","08","00","00","Set Interrupt Control A: 0000 0000","Set Interrupt Control B: 0000 0000"
9,"W","27","0C","00","00","Set GPIO Pull-up Resistor A: 0000 0000","Set GPIO Pull-up Resistor B: 0000 0000"
10,"W","27","04","DC","DA","Set Enable Interrupt A: 1101 1100","Set Enable Interrupt B: 1101 1010"
11,"W","27","12",,,,
12,"R","27","E0","BF (NACK)",,"Read GPIO A: 1110 0000","Read GPIO B: 1011 1111"
13,"W","27","12","00","00","Set GPIO A: 0000 0000","Set GPIO B: 0000 0000"
14,"W","27","12","00","00","Set GPIO A: 0000 0000","Set GPIO B: 0000 0000"
30,"W","27","12","00","00","Set GPIO A: 0000 0000","Set GPIO B: 0000 0000"
31,"W","27","12","20","00","Set GPIO A: 0010 0000","Set GPIO B: 0000 0000"
257,"W","27","12","20","01","Set GPIO A: 0010 0000","Set GPIO B: 0000 0001"
272,"W","27","12","20","05","Set GPIO A: 0010 0000","Set GPIO B: 0000 0101"
287,"W","27","12",,,,
288,"R","27","E0","9F (NACK)",,"Read GPIO A: 1110 0000","Read GPIO B: 1001 1111"
338,"W","27","12","20","25","Set GPIO A: 0010 0000","Set GPIO B: 0010 0101"
367,"W","27","12","21","25","Set GPIO A: 0010 0001","Set GPIO B: 0010 0101"
5312,"W","27","12","20","25","Set GPIO A: 0010 0000","Set GPIO B: 0010 0101"
5313,"W","27","12","20","25","Set GPIO A: 0010 0000","Set GPIO B: 0010 0101"
12485,"W","27","12",,,,
12486,"R","27","E0","B7 (NACK)",,"Read GPIO A: 1110 0000","Read GPIO B: 1011 0111"
12492,"W","27","12",,,,
12493,"R","27","E0","BF (NACK)",,"Read GPIO A: 1110 0000","Read GPIO B: 1011 1111"
84085,"W","27","12",,,,
84086,"R","27","E0","B7 (NACK)",,"Read GPIO A: 1110 0000","Read GPIO B: 1011 0111"
84092,"W","27","12",,,,
84093,"R","27","E0","BF (NACK)",,"Read GPIO A: 1110 0000","Read GPIO B: 1011 1111"
