"#","R/W","Address","B1","B2","Remark"
256,"W","48","01","1A","Set configuration"
336,"W","48","00",,"Request Temperature"
337,"R","48","18","A0 (NACK)","Temperature: 24.625 degrees"
659,"W","48","00",,"Request Temperature"
660,"R","48","18","C0 (NACK)","Temperature: 24.75 degrees"
1024,"W","48","00",,"Request Temperature"
1025,"R","48","18","C0 (NACK)","Temperature: 24.75 degrees"
1389,"W","48","00",,"Request Temperature"
1390,"R","48","18","C0 (NACK)","Temperature: 24.75 degrees"
1754,"W","48","00",,"Request Temperature"
1755,"R","48","18","C0 (NACK)","Temperature: 24.75 degrees"
2119,"W","48","00",,"Request Temperature"
2120,"R","48","18","C0 (NACK)","Temperature: 24.75 degrees"
2484,"W","48","00",,"Request Temperature"
2485,"R","48","18","A0 (NACK)","Temperature: 24.625 degrees"
2849,"W","48","00",,"Request Temperature"
2850,"R","48","18","A0 (NACK)","Temperature: 24.625 degrees"
3214,"W","48","00",,"Request Temperature"
3215,"R","48","18","E0 (NACK)","Temperature: 24.875 degrees"
3579,"W","48","00",,"Request Temperature"
3580,"R","48","18","C0 (NACK)","Temperature: 24.75 degrees"
3944,"W","48","00",,"Request Temperature"
3945,"R","48","18","E0 (NACK)","Temperature: 24.875 degrees"
4312,"W","48","00",,"Request Temperature"
4313,"R","48","18","C0 (NACK)","Temperature: 24.75 degrees"
4677,"W","48","00",,"Request Temperature"
4678,"R","48","18","C0 (NACK)","Temperature: 24.75 degrees"
5042,"W","48","00",,"Request Temperature"
5043,"R","48","18","C0 (NACK)","Temperature: 24.75 degrees"
5409,"W","48","00",,"Request Temperature"
5410,"R","48","18","C0 (NACK)","Temperature: 24.75 degrees"
5774,"W","48","00",,"Request Temperature"
5775,"R","48","18","C0 (NACK)","Temperature: 24.75 degrees"
6139,"W","48","00",,"Request Temperature"
6140,"R","48","18","A0 (NACK)","Temperature: 24.625 degrees"
6504,"W","48","00",,"Request Temperature"
6505,"R","48","18","A0 (NACK)","Temperature: 24.625 degrees"
6869,"W","48","00",,"Request Temperature"
6870,"R","48","18","C0 (NACK)","Temperature: 24.75 degrees"
7234,"W","48","00",,"Request Temperature"
7235,"R","48","18","A0 (NACK)","Temperature: 24.625 degrees"
7599,"W","48","00",,"Request Temperature"
7600,"R","48","18","C0 (NACK)","Temperature: 24.75 degrees"
7964,"W","48","00",,"Request Temperature"
7965,"R","48","18","A0 (NACK)","Temperature: 24.625 degrees"
8329,"W","48","00",,"Request Temperature"
8330,"R","48","18","A0 (NACK)","Temperature: 24.625 degrees"
8694,"W","48","00",,"Request Temperature"
8695,"R","48","18","C0 (NACK)","Temperature: 24.75 degrees"
9059,"W","48","00",,"Request Temperature"
9060,"R","48","18","C0 (NACK)","Temperature: 24.75 degrees"
9424,"W","48","00",,"Request Temperature"
9425,"R","48","18","A0 (NACK)","Temperature: 24.625 degrees"
9792,"W","48","00",,"Request Temperature"
9793,"R","48","18","E0 (NACK)","Temperature: 24.875 degrees"
10157,"W","48","00",,"Request Temperature"
10158,"R","48","19","00 (NACK)","Temperature: 25 degrees"
10522,"W","48","00",,"Request Temperature"
10523,"R","48","18","A0 (NACK)","Temperature: 24.625 degrees"
10887,"W","48","00",,"Request Temperature"
10888,"R","48","18","A0 (NACK)","Temperature: 24.625 degrees"
11252,"W","48","00",,"Request Temperature"
11253,"R","48","18","C0 (NACK)","Temperature: 24.75 degrees"
11617,"W","48","00",,"Request Temperature"
11618,"R","48","18","C0 (NACK)","Temperature: 24.75 degrees"
11982,"W","48","00",,"Request Temperature"
11983,"R","48","18","C0 (NACK)","Temperature: 24.75 degrees"
12347,"W","48","00",,"Request Temperature"
12348,"R","48","18","A0 (NACK)","Temperature: 24.625 degrees"
12721,"W","48","00",,"Request Temperature"
12722,"R","48","18","C0 (NACK)","Temperature: 24.75 degrees"
13086,"W","48","00",,"Request Temperature"
13087,"R","48","18","E0 (NACK)","Temperature: 24.875 degrees"
13451,"W","48","00",,"Request Temperature"
13452,"R","48","18","A0 (NACK)","Temperature: 24.625 degrees"
13816,"W","48","00",,"Request Temperature"
13817,"R","48","18","C0 (NACK)","Temperature: 24.75 degrees"
14181,"W","48","00",,"Request Temperature"
14182,"R","48","18","A0 (NACK)","Temperature: 24.625 degrees"
14546,"W","48","00",,"Request Temperature"
14547,"R","48","18","A0 (NACK)","Temperature: 24.625 degrees"
14911,"W","48","00",,"Request Temperature"
14912,"R","48","18","C0 (NACK)","Temperature: 24.75 degrees"
15279,"W","48","00",,"Request Temperature"
15280,"R","48","18","C0 (NACK)","Temperature: 24.75 degrees"
15644,"W","48","00",,"Request Temperature"
15645,"R","48","18","A0 (NACK)","Temperature: 24.625 degrees"
16009,"W","48","00",,"Request Temperature"
16010,"R","48","18","C0 (NACK)","Temperature: 24.75 degrees"
16374,"W","48","00",,"Request Temperature"
16375,"R","48","18","A0 (NACK)","Temperature: 24.625 degrees"
16739,"W","48","00",,"Request Temperature"
16740,"R","48","18","C0 (NACK)","Temperature: 24.75 degrees"
17104,"W","48","00",,"Request Temperature"
17105,"R","48","18","A0 (NACK)","Temperature: 24.625 degrees"
17469,"W","48","00",,"Request Temperature"
17470,"R","48","18","E0 (NACK)","Temperature: 24.875 degrees"
17834,"W","48","00",,"Request Temperature"
17835,"R","48","18","C0 (NACK)","Temperature: 24.75 degrees"
18199,"W","48","00",,"Request Temperature"
18200,"R","48","18","C0 (NACK)","Temperature: 24.75 degrees"
18564,"W","48","00",,"Request Temperature"
18565,"R","48","19","00 (NACK)","Temperature: 25 degrees"
18929,"W","48","00",,"Request Temperature"
18930,"R","48","18","A0 (NACK)","Temperature: 24.625 degrees"
19294,"W","48","00",,"Request Temperature"
19295,"R","48","18","C0 (NACK)","Temperature: 24.75 degrees"
19659,"W","48","00",,"Request Temperature"
19660,"R","48","18","A0 (NACK)","Temperature: 24.625 degrees"
20024,"W","48","00",,"Request Temperature"
20025,"R","48","18","C0 (NACK)","Temperature: 24.75 degrees"
20389,"W","48","00",,"Request Temperature"
20390,"R","48","18","A0 (NACK)","Temperature: 24.625 degrees"
20757,"W","48","00",,"Request Temperature"
20758,"R","48","18","C0 (NACK)","Temperature: 24.75 degrees"
21122,"W","48","00",,"Request Temperature"
21123,"R","48","18","A0 (NACK)","Temperature: 24.625 degrees"
21487,"W","48","00",,"Request Temperature"
21488,"R","48","18","A0 (NACK)","Temperature: 24.625 degrees"
21852,"W","48","00",,"Request Temperature"
21853,"R","48","18","C0 (NACK)","Temperature: 24.75 degrees"
22217,"W","48","00",,"Request Temperature"
22218,"R","48","18","C0 (NACK)","Temperature: 24.75 degrees"
22582,"W","48","00",,"Request Temperature"
22583,"R","48","18","C0 (NACK)","Temperature: 24.75 degrees"
22947,"W","48","00",,"Request Temperature"
22948,"R","48","18","80 (NACK)","Temperature: 24.5 degrees"
23312,"W","48","00",,"Request Temperature"
23313,"R","48","18","C0 (NACK)","Temperature: 24.75 degrees"
23677,"W","48","00",,"Request Temperature"
23678,"R","48","18","A0 (NACK)","Temperature: 24.625 degrees"
24042,"W","48","00",,"Request Temperature"
24043,"R","48","18","E0 (NACK)","Temperature: 24.875 degrees"
24407,"W","48","00",,"Request Temperature"
24408,"R","48","18","A0 (NACK)","Temperature: 24.625 degrees"
24772,"W","48","00",,"Request Temperature"
24773,"R","48","18","C0 (NACK)","Temperature: 24.75 degrees"
25137,"W","48","00",,"Request Temperature"
25138,"R","48","18","A0 (NACK)","Temperature: 24.625 degrees"
25502,"W","48","00",,"Request Temperature"
25503,"R","48","18","A0 (NACK)","Temperature: 24.625 degrees"
25867,"W","48","00",,"Request Temperature"
25868,"R","48","18","A0 (NACK)","Temperature: 24.625 degrees"
26235,"W","48","00",,"Request Temperature"
26236,"R","48","18","A0 (NACK)","Temperature: 24.625 degrees"
26600,"W","48","00",,"Request Temperature"
26601,"R","48","18","C0 (NACK)","Temperature: 24.75 degrees"
26965,"W","48","00",,"Request Temperature"
26966,"R","48","18","A0 (NACK)","Temperature: 24.625 degrees"
27330,"W","48","00",,"Request Temperature"
27331,"R","48","18","80 (NACK)","Temperature: 24.5 degrees"
27695,"W","48","00",,"Request Temperature"
27696,"R","48","18","C0 (NACK)","Temperature: 24.75 degrees"
28060,"W","48","00",,"Request Temperature"
28061,"R","48","18","A0 (NACK)","Temperature: 24.625 degrees"
28425,"W","48","00",,"Request Temperature"
28426,"R","48","18","C0 (NACK)","Temperature: 24.75 degrees"
28790,"W","48","00",,"Request Temperature"
28791,"R","48","18","A0 (NACK)","Temperature: 24.625 degrees"
29155,"W","48","00",,"Request Temperature"
29156,"R","48","18","A0 (NACK)","Temperature: 24.625 degrees"
29520,"W","48","00",,"Request Temperature"
29521,"R","48","18","A0 (NACK)","Temperature: 24.625 degrees"
29885,"W","48","00",,"Request Temperature"
29886,"R","48","18","A0 (NACK)","Temperature: 24.625 degrees"
30250,"W","48","00",,"Request Temperature"
30251,"R","48","18","A0 (NACK)","Temperature: 24.625 degrees"
30615,"W","48","00",,"Request Temperature"
30616,"R","48","18","C0 (NACK)","Temperature: 24.75 degrees"
30980,"W","48","00",,"Request Temperature"
30981,"R","48","18","A0 (NACK)","Temperature: 24.625 degrees"
31345,"W","48","00",,"Request Temperature"
31346,"R","48","18","80 (NACK)","Temperature: 24.5 degrees"
31713,"W","48","00",,"Request Temperature"
31714,"R","48","18","A0 (NACK)","Temperature: 24.625 degrees"
32078,"W","48","00",,"Request Temperature"
32079,"R","48","18","A0 (NACK)","Temperature: 24.625 degrees"
32443,"W","48","00",,"Request Temperature"
32444,"R","48","18","A0 (NACK)","Temperature: 24.625 degrees"
32808,"W","48","00",,"Request Temperature"
32809,"R","48","18","C0 (NACK)","Temperature: 24.75 degrees"
33173,"W","48","00",,"Request Temperature"
33174,"R","48","18","E0 (NACK)","Temperature: 24.875 degrees"
33538,"W","48","00",,"Request Temperature"
33539,"R","48","18","A0 (NACK)","Temperature: 24.625 degrees"
33903,"W","48","00",,"Request Temperature"
33904,"R","48","18","A0 (NACK)","Temperature: 24.625 degrees"
34268,"W","48","00",,"Request Temperature"
34269,"R","48","18","C0 (NACK)","Temperature: 24.75 degrees"
34633,"W","48","00",,"Request Temperature"
34634,"R","48","18","C0 (NACK)","Temperature: 24.75 degrees"
34998,"W","48","00",,"Request Temperature"
34999,"R","48","18","C0 (NACK)","Temperature: 24.75 degrees"
35363,"W","48","00",,"Request Temperature"
35364,"R","48","18","C0 (NACK)","Temperature: 24.75 degrees"
35728,"W","48","00",,"Request Temperature"
35729,"R","48","18","A0 (NACK)","Temperature: 24.625 degrees"
36093,"W","48","00",,"Request Temperature"
36094,"R","48","18","C0 (NACK)","Temperature: 24.75 degrees"
36458,"W","48","00",,"Request Temperature"
36459,"R","48","18","80 (NACK)","Temperature: 24.5 degrees"
36823,"W","48","00",,"Request Temperature"
36824,"R","48","18","C0 (NACK)","Temperature: 24.75 degrees"
37191,"W","48","00",,"Request Temperature"
37192,"R","48","18","C0 (NACK)","Temperature: 24.75 degrees"
37556,"W","48","00",,"Request Temperature"
37557,"R","48","18","80 (NACK)","Temperature: 24.5 degrees"
37921,"W","48","00",,"Request Temperature"
37922,"R","48","18","C0 (NACK)","Temperature: 24.75 degrees"
38286,"W","48","00",,"Request Temperature"
38287,"R","48","18","A0 (NACK)","Temperature: 24.625 degrees"
38651,"W","48","00",,"Request Temperature"
38652,"R","48","18","C0 (NACK)","Temperature: 24.75 degrees"
39016,"W","48","00",,"Request Temperature"
39017,"R","48","18","C0 (NACK)","Temperature: 24.75 degrees"
39381,"W","48","00",,"Request Temperature"
39382,"R","48","18","A0 (NACK)","Temperature: 24.625 degrees"
39746,"W","48","00",,"Request Temperature"
39747,"R","48","18","C0 (NACK)","Temperature: 24.75 degrees"
40111,"W","48","00",,"Request Temperature"
40112,"R","48","18","A0 (NACK)","Temperature: 24.625 degrees"
40476,"W","48","00",,"Request Temperature"
40477,"R","48","18","C0 (NACK)","Temperature: 24.75 degrees"
40841,"W","48","00",,"Request Temperature"
40842,"R","48","18","A0 (NACK)","Temperature: 24.625 degrees"
41206,"W","48","00",,"Request Temperature"
41207,"R","48","18","A0 (NACK)","Temperature: 24.625 degrees"
41571,"W","48","00",,"Request Temperature"
41572,"R","48","19","00 (NACK)","Temperature: 25 degrees"
41936,"W","48","00",,"Request Temperature"
41937,"R","48","18","C0 (NACK)","Temperature: 24.75 degrees"
42301,"W","48","00",,"Request Temperature"
42302,"R","48","18","A0 (NACK)","Temperature: 24.625 degrees"
42669,"W","48","00",,"Request Temperature"
42670,"R","48","18","A0 (NACK)","Temperature: 24.625 degrees"
43034,"W","48","00",,"Request Temperature"
43035,"R","48","18","A0 (NACK)","Temperature: 24.625 degrees"
43399,"W","48","00",,"Request Temperature"
43400,"R","48","18","A0 (NACK)","Temperature: 24.625 degrees"
43764,"W","48","00",,"Request Temperature"
43765,"R","48","18","C0 (NACK)","Temperature: 24.75 degrees"
44129,"W","48","00",,"Request Temperature"
44130,"R","48","18","A0 (NACK)","Temperature: 24.625 degrees"
44494,"W","48","00",,"Request Temperature"
44495,"R","48","18","A0 (NACK)","Temperature: 24.625 degrees"
44859,"W","48","00",,"Request Temperature"
44860,"R","48","18","A0 (NACK)","Temperature: 24.625 degrees"
45224,"W","48","00",,"Request Temperature"
45225,"R","48","18","C0 (NACK)","Temperature: 24.75 degrees"
45589,"W","48","00",,"Request Temperature"
45590,"R","48","18","A0 (NACK)","Temperature: 24.625 degrees"
45954,"W","48","00",,"Request Temperature"
45955,"R","48","18","C0 (NACK)","Temperature: 24.75 degrees"
46319,"W","48","00",,"Request Temperature"
46320,"R","48","18","A0 (NACK)","Temperature: 24.625 degrees"
46684,"W","48","00",,"Request Temperature"
46685,"R","48","18","A0 (NACK)","Temperature: 24.625 degrees"
47049,"W","48","00",,"Request Temperature"
47050,"R","48","18","C0 (NACK)","Temperature: 24.75 degrees"
47414,"W","48","00",,"Request Temperature"
47415,"R","48","18","A0 (NACK)","Temperature: 24.625 degrees"
47779,"W","48","00",,"Request Temperature"
47780,"R","48","18","A0 (NACK)","Temperature: 24.625 degrees"
48147,"W","48","00",,"Request Temperature"
48148,"R","48","18","A0 (NACK)","Temperature: 24.625 degrees"
48512,"W","48","00",,"Request Temperature"
48513,"R","48","18","80 (NACK)","Temperature: 24.5 degrees"
48877,"W","48","00",,"Request Temperature"
48878,"R","48","18","80 (NACK)","Temperature: 24.5 degrees"
49242,"W","48","00",,"Request Temperature"
49243,"R","48","18","A0 (NACK)","Temperature: 24.625 degrees"
49607,"W","48","00",,"Request Temperature"
49608,"R","48","18","A0 (NACK)","Temperature: 24.625 degrees"
49972,"W","48","00",,"Request Temperature"
49973,"R","48","18","A0 (NACK)","Temperature: 24.625 degrees"
50337,"W","48","00",,"Request Temperature"
50338,"R","48","18","A0 (NACK)","Temperature: 24.625 degrees"
50702,"W","48","00",,"Request Temperature"
50703,"R","48","18","A0 (NACK)","Temperature: 24.625 degrees"
51067,"W","48","00",,"Request Temperature"
51068,"R","48","18","A0 (NACK)","Temperature: 24.625 degrees"
51432,"W","48","00",,"Request Temperature"
51433,"R","48","18","C0 (NACK)","Temperature: 24.75 degrees"
51797,"W","48","00",,"Request Temperature"
51798,"R","48","18","C0 (NACK)","Temperature: 24.75 degrees"
52162,"W","48","00",,"Request Temperature"
52163,"R","48","18","C0 (NACK)","Temperature: 24.75 degrees"
52527,"W","48","00",,"Request Temperature"
52528,"R","48","18","A0 (NACK)","Temperature: 24.625 degrees"
52892,"W","48","00",,"Request Temperature"
52893,"R","48","18","A0 (NACK)","Temperature: 24.625 degrees"
53257,"W","48","00",,"Request Temperature"
53258,"R","48","18","A0 (NACK)","Temperature: 24.625 degrees"
53625,"W","48","00",,"Request Temperature"
53626,"R","48","18","C0 (NACK)","Temperature: 24.75 degrees"
53990,"W","48","00",,"Request Temperature"
53991,"R","48","18","C0 (NACK)","Temperature: 24.75 degrees"
54355,"W","48","00",,"Request Temperature"
54356,"R","48","18","C0 (NACK)","Temperature: 24.75 degrees"
54720,"W","48","00",,"Request Temperature"
54721,"R","48","18","E0 (NACK)","Temperature: 24.875 degrees"
55085,"W","48","00",,"Request Temperature"
55086,"R","48","18","C0 (NACK)","Temperature: 24.75 degrees"
55450,"W","48","00",,"Request Temperature"
55451,"R","48","18","C0 (NACK)","Temperature: 24.75 degrees"
55815,"W","48","00",,"Request Temperature"
55816,"R","48","18","C0 (NACK)","Temperature: 24.75 degrees"
56180,"W","48","00",,"Request Temperature"
56181,"R","48","18","C0 (NACK)","Temperature: 24.75 degrees"
56545,"W","48","00",,"Request Temperature"
56546,"R","48","18","C0 (NACK)","Temperature: 24.75 degrees"
56910,"W","48","00",,"Request Temperature"
56911,"R","48","18","C0 (NACK)","Temperature: 24.75 degrees"
57275,"W","48","00",,"Request Temperature"
57276,"R","48","18","A0 (NACK)","Temperature: 24.625 degrees"
57640,"W","48","00",,"Request Temperature"
57641,"R","48","18","C0 (NACK)","Temperature: 24.75 degrees"
58005,"W","48","00",,"Request Temperature"
58006,"R","48","18","C0 (NACK)","Temperature: 24.75 degrees"
58370,"W","48","00",,"Request Temperature"
58371,"R","48","18","C0 (NACK)","Temperature: 24.75 degrees"
58735,"W","48","00",,"Request Temperature"
58736,"R","48","18","C0 (NACK)","Temperature: 24.75 degrees"
59103,"W","48","00",,"Request Temperature"
59104,"R","48","18","C0 (NACK)","Temperature: 24.75 degrees"
59468,"W","48","00",,"Request Temperature"
59469,"R","48","18","C0 (NACK)","Temperature: 24.75 degrees"
59833,"W","48","00",,"Request Temperature"
59834,"R","48","18","A0 (NACK)","Temperature: 24.625 degrees"
60198,"W","48","00",,"Request Temperature"
60199,"R","48","18","A0 (NACK)","Temperature: 24.625 degrees"
60563,"W","48","00",,"Request Temperature"
60564,"R","48","18","A0 (NACK)","Temperature: 24.625 degrees"
60928,"W","48","00",,"Request Temperature"
60929,"R","48","18","C0 (NACK)","Temperature: 24.75 degrees"
61293,"W","48","00",,"Request Temperature"
61294,"R","48","18","A0 (NACK)","Temperature: 24.625 degrees"
61658,"W","48","00",,"Request Temperature"
61659,"R","48","18","A0 (NACK)","Temperature: 24.625 degrees"
62023,"W","48","00",,"Request Temperature"
62024,"R","48","18","C0 (NACK)","Temperature: 24.75 degrees"
62388,"W","48","00",,"Request Temperature"
62389,"R","48","18","A0 (NACK)","Temperature: 24.625 degrees"
62753,"W","48","00",,"Request Temperature"
62754,"R","48","18","A0 (NACK)","Temperature: 24.625 degrees"
63118,"W","48","00",,"Request Temperature"
63119,"R","48","18","A0 (NACK)","Temperature: 24.625 degrees"
63483,"W","48","00",,"Request Temperature"
63484,"R","48","18","A0 (NACK)","Temperature: 24.625 degrees"
63848,"W","48","00",,"Request Temperature"
63849,"R","48","18","E0 (NACK)","Temperature: 24.875 degrees"
64213,"W","48","00",,"Request Temperature"
64214,"R","48","18","A0 (NACK)","Temperature: 24.625 degrees"
64581,"W","48","00",,"Request Temperature"
64582,"R","48","18","C0 (NACK)","Temperature: 24.75 degrees"
64946,"W","48","00",,"Request Temperature"
64947,"R","48","18","C0 (NACK)","Temperature: 24.75 degrees"
65311,"W","48","00",,"Request Temperature"
65312,"R","48","18","A0 (NACK)","Temperature: 24.625 degrees"
65676,"W","48","00",,"Request Temperature"
65677,"R","48","18","E0 (NACK)","Temperature: 24.875 degrees"
66041,"W","48","00",,"Request Temperature"
66042,"R","48","18","C0 (NACK)","Temperature: 24.75 degrees"
66406,"W","48","00",,"Request Temperature"
66407,"R","48","18","A0 (NACK)","Temperature: 24.625 degrees"
66771,"W","48","00",,"Request Temperature"
66772,"R","48","18","C0 (NACK)","Temperature: 24.75 degrees"
67136,"W","48","00",,"Request Temperature"
67137,"R","48","18","C0 (NACK)","Temperature: 24.75 degrees"
67501,"W","48","00",,"Request Temperature"
67502,"R","48","18","A0 (NACK)","Temperature: 24.625 degrees"
67866,"W","48","00",,"Request Temperature"
67867,"R","48","18","C0 (NACK)","Temperature: 24.75 degrees"
68231,"W","48","00",,"Request Temperature"
68232,"R","48","18","C0 (NACK)","Temperature: 24.75 degrees"
68596,"W","48","00",,"Request Temperature"
68597,"R","48","18","A0 (NACK)","Temperature: 24.625 degrees"
68961,"W","48","00",,"Request Temperature"
68962,"R","48","18","A0 (NACK)","Temperature: 24.625 degrees"
69326,"W","48","00",,"Request Temperature"
69327,"R","48","18","C0 (NACK)","Temperature: 24.75 degrees"
69691,"W","48","00",,"Request Temperature"
69692,"R","48","18","C0 (NACK)","Temperature: 24.75 degrees"
70059,"W","48","00",,"Request Temperature"
70060,"R","48","18","A0 (NACK)","Temperature: 24.625 degrees"
70424,"W","48","00",,"Request Temperature"
70425,"R","48","18","A0 (NACK)","Temperature: 24.625 degrees"
70789,"W","48","00",,"Request Temperature"
70790,"R","48","18","C0 (NACK)","Temperature: 24.75 degrees"
71154,"W","48","00",,"Request Temperature"
71155,"R","48","18","E0 (NACK)","Temperature: 24.875 degrees"
71519,"W","48","00",,"Request Temperature"
71520,"R","48","18","A0 (NACK)","Temperature: 24.625 degrees"
71884,"W","48","00",,"Request Temperature"
71885,"R","48","18","C0 (NACK)","Temperature: 24.75 degrees"
72261,"W","48","00",,"Request Temperature"
72262,"R","48","18","A0 (NACK)","Temperature: 24.625 degrees"
72626,"W","48","00",,"Request Temperature"
72627,"R","48","19","00 (NACK)","Temperature: 25 degrees"
72991,"W","48","00",,"Request Temperature"
72992,"R","48","18","A0 (NACK)","Temperature: 24.625 degrees"
73356,"W","48","00",,"Request Temperature"
73357,"R","48","18","C0 (NACK)","Temperature: 24.75 degrees"
73721,"W","48","00",,"Request Temperature"
73722,"R","48","18","C0 (NACK)","Temperature: 24.75 degrees"
74086,"W","48","00",,"Request Temperature"
74087,"R","48","18","C0 (NACK)","Temperature: 24.75 degrees"
74451,"W","48","00",,"Request Temperature"
74452,"R","48","18","C0 (NACK)","Temperature: 24.75 degrees"
74816,"W","48","00",,"Request Temperature"
74817,"R","48","18","C0 (NACK)","Temperature: 24.75 degrees"
75181,"W","48","00",,"Request Temperature"
75182,"R","48","18","C0 (NACK)","Temperature: 24.75 degrees"
75549,"W","48","00",,"Request Temperature"
75550,"R","48","18","C0 (NACK)","Temperature: 24.75 degrees"
75914,"W","48","00",,"Request Temperature"
75915,"R","48","18","C0 (NACK)","Temperature: 24.75 degrees"
76279,"W","48","00",,"Request Temperature"
76280,"R","48","18","A0 (NACK)","Temperature: 24.625 degrees"
76644,"W","48","00",,"Request Temperature"
76645,"R","48","18","E0 (NACK)","Temperature: 24.875 degrees"
77009,"W","48","00",,"Request Temperature"
77010,"R","48","18","A0 (NACK)","Temperature: 24.625 degrees"
77374,"W","48","00",,"Request Temperature"
77375,"R","48","18","A0 (NACK)","Temperature: 24.625 degrees"
77739,"W","48","00",,"Request Temperature"
77740,"R","48","18","A0 (NACK)","Temperature: 24.625 degrees"
78104,"W","48","00",,"Request Temperature"
78105,"R","48","18","A0 (NACK)","Temperature: 24.625 degrees"
78469,"W","48","00",,"Request Temperature"
78470,"R","48","18","C0 (NACK)","Temperature: 24.75 degrees"
78834,"W","48","00",,"Request Temperature"
78835,"R","48","18","A0 (NACK)","Temperature: 24.625 degrees"
79199,"W","48","00",,"Request Temperature"
79200,"R","48","18","A0 (NACK)","Temperature: 24.625 degrees"
79564,"W","48","00",,"Request Temperature"
79565,"R","48","18","A0 (NACK)","Temperature: 24.625 degrees"
79929,"W","48","00",,"Request Temperature"
79930,"R","48","18","C0 (NACK)","Temperature: 24.75 degrees"
80294,"W","48","00",,"Request Temperature"
80295,"R","48","18","A0 (NACK)","Temperature: 24.625 degrees"
80659,"W","48","00",,"Request Temperature"
80660,"R","48","18","A0 (NACK)","Temperature: 24.625 degrees"
81027,"W","48","00",,"Request Temperature"
81028,"R","48","18","A0 (NACK)","Temperature: 24.625 degrees"
81392,"W","48","00",,"Request Temperature"
81393,"R","48","18","C0 (NACK)","Temperature: 24.75 degrees"
81757,"W","48","00",,"Request Temperature"
81758,"R","48","18","A0 (NACK)","Temperature: 24.625 degrees"
82122,"W","48","00",,"Request Temperature"
82123,"R","48","18","A0 (NACK)","Temperature: 24.625 degrees"
82487,"W","48","00",,"Request Temperature"
82488,"R","48","18","A0 (NACK)","Temperature: 24.625 degrees"
82852,"W","48","00",,"Request Temperature"
82853,"R","48","18","80 (NACK)","Temperature: 24.5 degrees"
83217,"W","48","00",,"Request Temperature"
83218,"R","48","18","A0 (NACK)","Temperature: 24.625 degrees"
83582,"W","48","00",,"Request Temperature"
83583,"R","48","18","C0 (NACK)","Temperature: 24.75 degrees"
83947,"W","48","00",,"Request Temperature"
83948,"R","48","18","C0 (NACK)","Temperature: 24.75 degrees"
84321,"W","48","00",,"Request Temperature"
84322,"R","48","18","A0 (NACK)","Temperature: 24.625 degrees"
84686,"W","48","00",,"Request Temperature"
84687,"R","48","18","80 (NACK)","Temperature: 24.5 degrees"
85051,"W","48","00",,"Request Temperature"
85052,"R","48","18","A0 (NACK)","Temperature: 24.625 degrees"
85416,"W","48","00",,"Request Temperature"
85417,"R","48","18","C0 (NACK)","Temperature: 24.75 degrees"
85781,"W","48","00",,"Request Temperature"
85782,"R","48","18","C0 (NACK)","Temperature: 24.75 degrees"
86146,"W","48","00",,"Request Temperature"
86147,"R","48","18","C0 (NACK)","Temperature: 24.75 degrees"
86514,"W","48","00",,"Request Temperature"
86515,"R","48","18","E0 (NACK)","Temperature: 24.875 degrees"
86879,"W","48","00",,"Request Temperature"
86880,"R","48","18","C0 (NACK)","Temperature: 24.75 degrees"
87244,"W","48","00",,"Request Temperature"
87245,"R","48","18","80 (NACK)","Temperature: 24.5 degrees"
87609,"W","48","00",,"Request Temperature"
87610,"R","48","18","A0 (NACK)","Temperature: 24.625 degrees"
87974,"W","48","00",,"Request Temperature"
87975,"R","48","18","A0 (NACK)","Temperature: 24.625 degrees"
88339,"W","48","00",,"Request Temperature"
88340,"R","48","18","C0 (NACK)","Temperature: 24.75 degrees"
88704,"W","48","00",,"Request Temperature"
88705,"R","48","18","C0 (NACK)","Temperature: 24.75 degrees"
89069,"W","48","00",,"Request Temperature"
89070,"R","48","18","A0 (NACK)","Temperature: 24.625 degrees"
