"#","R/W","Address","B1","B2","B3","Remarks"
15,"W","77","E0","B6",,"Sets Reset".
16,"W","77","D0",,,"Wants to read: Device id"
17,"R","77","58 (NACK)",,,
18,"W","77","F4","05",,"Sets Data acquisition options".
19,"W","77","F5","01",,"Sets Configuration".
20,"W","77","F7",,,"Wants to read: Pressure"
21,"R","77","80","00","00 (NACK)",
22,"W","77","F4","05",,"Sets Data acquisition options".
23,"W","77","F5","01",,"Sets Configuration".
24,"W","77","F7",,,"Wants to read: Pressure"
25,"R","77","80","00","00 (NACK)",
26,"W","77","F4","05",,"Sets Data acquisition options".
27,"W","77","F5","01",,"Sets Configuration".
28,"W","77","F7",,,"Wants to read: Pressure"
29,"R","77","61","25","00 (NACK)",
339,"W","77","F4","05",,"Sets Data acquisition options".
340,"W","77","F5","01",,"Sets Configuration".
341,"W","77","F7",,,"Wants to read: Pressure"
342,"R","77","61","24","00 (NACK)",
661,"W","77","F4","05",,"Sets Data acquisition options".
662,"W","77","F5","01",,"Sets Configuration".
663,"W","77","F7",,,"Wants to read: Pressure"
664,"R","77","61","22","00 (NACK)",
1026,"W","77","F4","05",,"Sets Data acquisition options".
1027,"W","77","F5","01",,"Sets Configuration".
1028,"W","77","F7",,,"Wants to read: Pressure"
1029,"R","77","61","23","00 (NACK)",
1391,"W","77","F4","05",,"Sets Data acquisition options".
1392,"W","77","F5","01",,"Sets Configuration".
1393,"W","77","F7",,,"Wants to read: Pressure"
1394,"R","77","61","24","00 (NACK)",
1756,"W","77","F4","05",,"Sets Data acquisition options".
1757,"W","77","F5","01",,"Sets Configuration".
1758,"W","77","F7",,,"Wants to read: Pressure"
1759,"R","77","61","24","00 (NACK)",
2121,"W","77","F4","05",,"Sets Data acquisition options".
2122,"W","77","F5","01",,"Sets Configuration".
2123,"W","77","F7",,,"Wants to read: Pressure"
2124,"R","77","61","24","00 (NACK)",
2486,"W","77","F4","05",,"Sets Data acquisition options".
2487,"W","77","F5","01",,"Sets Configuration".
2488,"W","77","F7",,,"Wants to read: Pressure"
2489,"R","77","61","22","00 (NACK)",
2851,"W","77","F4","05",,"Sets Data acquisition options".
2852,"W","77","F5","01",,"Sets Configuration".
2853,"W","77","F7",,,"Wants to read: Pressure"
2854,"R","77","61","24","00 (NACK)",
3216,"W","77","F4","05",,"Sets Data acquisition options".
3217,"W","77","F5","01",,"Sets Configuration".
3218,"W","77","F7",,,"Wants to read: Pressure"
3219,"R","77","61","22","00 (NACK)",
3581,"W","77","F4","05",,"Sets Data acquisition options".
3582,"W","77","F5","01",,"Sets Configuration".
3583,"W","77","F7",,,"Wants to read: Pressure"
3584,"R","77","61","24","00 (NACK)",
3946,"W","77","F4","05",,"Sets Data acquisition options".
3947,"W","77","F5","01",,"Sets Configuration".
3948,"W","77","F7",,,"Wants to read: Pressure"
3949,"R","77","61","26","00 (NACK)",
4314,"W","77","F4","05",,"Sets Data acquisition options".
4315,"W","77","F5","01",,"Sets Configuration".
4316,"W","77","F7",,,"Wants to read: Pressure"
4317,"R","77","61","25","00 (NACK)",
4679,"W","77","F4","05",,"Sets Data acquisition options".
4680,"W","77","F5","01",,"Sets Configuration".
4681,"W","77","F7",,,"Wants to read: Pressure"
4682,"R","77","61","26","00 (NACK)",
5044,"W","77","F4","05",,"Sets Data acquisition options".
5045,"W","77","F5","01",,"Sets Configuration".
5046,"W","77","F7",,,"Wants to read: Pressure"
5047,"R","77","61","25","00 (NACK)",
5411,"W","77","F4","05",,"Sets Data acquisition options".
5412,"W","77","F5","01",,"Sets Configuration".
5413,"W","77","F7",,,"Wants to read: Pressure"
5414,"R","77","61","25","00 (NACK)",
5776,"W","77","F4","05",,"Sets Data acquisition options".
5777,"W","77","F5","01",,"Sets Configuration".
5778,"W","77","F7",,,"Wants to read: Pressure"
5779,"R","77","61","24","00 (NACK)",
6141,"W","77","F4","05",,"Sets Data acquisition options".
6142,"W","77","F5","01",,"Sets Configuration".
6143,"W","77","F7",,,"Wants to read: Pressure"
6144,"R","77","61","23","00 (NACK)",
6506,"W","77","F4","05",,"Sets Data acquisition options".
6507,"W","77","F5","01",,"Sets Configuration".
6508,"W","77","F7",,,"Wants to read: Pressure"
6509,"R","77","61","26","00 (NACK)",
6871,"W","77","F4","05",,"Sets Data acquisition options".
6872,"W","77","F5","01",,"Sets Configuration".
6873,"W","77","F7",,,"Wants to read: Pressure"
6874,"R","77","61","24","00 (NACK)",
7236,"W","77","F4","05",,"Sets Data acquisition options".
7237,"W","77","F5","01",,"Sets Configuration".
7238,"W","77","F7",,,"Wants to read: Pressure"
7239,"R","77","61","25","00 (NACK)",
7601,"W","77","F4","05",,"Sets Data acquisition options".
7602,"W","77","F5","01",,"Sets Configuration".
7603,"W","77","F7",,,"Wants to read: Pressure"
7604,"R","77","61","22","00 (NACK)",
7966,"W","77","F4","05",,"Sets Data acquisition options".
7967,"W","77","F5","01",,"Sets Configuration".
7968,"W","77","F7",,,"Wants to read: Pressure"
7969,"R","77","61","26","00 (NACK)",
8331,"W","77","F4","05",,"Sets Data acquisition options".
8332,"W","77","F5","01",,"Sets Configuration".
8333,"W","77","F7",,,"Wants to read: Pressure"
8334,"R","77","61","25","00 (NACK)",
8696,"W","77","F4","05",,"Sets Data acquisition options".
8697,"W","77","F5","01",,"Sets Configuration".
8698,"W","77","F7",,,"Wants to read: Pressure"
8699,"R","77","61","24","00 (NACK)",
9061,"W","77","F4","05",,"Sets Data acquisition options".
9062,"W","77","F5","01",,"Sets Configuration".
9063,"W","77","F7",,,"Wants to read: Pressure"
9064,"R","77","61","23","00 (NACK)",
9426,"W","77","F4","05",,"Sets Data acquisition options".
9427,"W","77","F5","01",,"Sets Configuration".
9428,"W","77","F7",,,"Wants to read: Pressure"
9429,"R","77","61","23","00 (NACK)",
9794,"W","77","F4","05",,"Sets Data acquisition options".
9795,"W","77","F5","01",,"Sets Configuration".
9796,"W","77","F7",,,"Wants to read: Pressure"
9797,"R","77","61","25","00 (NACK)",
10159,"W","77","F4","05",,"Sets Data acquisition options".
10160,"W","77","F5","01",,"Sets Configuration".
10161,"W","77","F7",,,"Wants to read: Pressure"
10162,"R","77","61","23","00 (NACK)",
10524,"W","77","F4","05",,"Sets Data acquisition options".
10525,"W","77","F5","01",,"Sets Configuration".
10526,"W","77","F7",,,"Wants to read: Pressure"
10527,"R","77","61","25","00 (NACK)",
10889,"W","77","F4","05",,"Sets Data acquisition options".
10890,"W","77","F5","01",,"Sets Configuration".
10891,"W","77","F7",,,"Wants to read: Pressure"
10892,"R","77","61","25","00 (NACK)",
11254,"W","77","F4","05",,"Sets Data acquisition options".
11255,"W","77","F5","01",,"Sets Configuration".
11256,"W","77","F7",,,"Wants to read: Pressure"
11257,"R","77","61","25","00 (NACK)",
11619,"W","77","F4","05",,"Sets Data acquisition options".
11620,"W","77","F5","01",,"Sets Configuration".
11621,"W","77","F7",,,"Wants to read: Pressure"
11622,"R","77","61","23","00 (NACK)",
11984,"W","77","F4","05",,"Sets Data acquisition options".
11985,"W","77","F5","01",,"Sets Configuration".
11986,"W","77","F7",,,"Wants to read: Pressure"
11987,"R","77","61","24","00 (NACK)",
12349,"W","77","F4","05",,"Sets Data acquisition options".
12350,"W","77","F5","01",,"Sets Configuration".
12351,"W","77","F7",,,"Wants to read: Pressure"
12352,"R","77","61","26","00 (NACK)",
12723,"W","77","F4","05",,"Sets Data acquisition options".
12724,"W","77","F5","01",,"Sets Configuration".
12725,"W","77","F7",,,"Wants to read: Pressure"
12726,"R","77","61","23","00 (NACK)",
13088,"W","77","F4","05",,"Sets Data acquisition options".
13089,"W","77","F5","01",,"Sets Configuration".
13090,"W","77","F7",,,"Wants to read: Pressure"
13091,"R","77","61","25","00 (NACK)",
13453,"W","77","F4","05",,"Sets Data acquisition options".
13454,"W","77","F5","01",,"Sets Configuration".
13455,"W","77","F7",,,"Wants to read: Pressure"
13456,"R","77","61","23","00 (NACK)",
13818,"W","77","F4","05",,"Sets Data acquisition options".
13819,"W","77","F5","01",,"Sets Configuration".
13820,"W","77","F7",,,"Wants to read: Pressure"
13821,"R","77","61","23","00 (NACK)",
14183,"W","77","F4","05",,"Sets Data acquisition options".
14184,"W","77","F5","01",,"Sets Configuration".
14185,"W","77","F7",,,"Wants to read: Pressure"
14186,"R","77","61","25","00 (NACK)",
14548,"W","77","F4","05",,"Sets Data acquisition options".
14549,"W","77","F5","01",,"Sets Configuration".
14550,"W","77","F7",,,"Wants to read: Pressure"
14551,"R","77","61","28","00 (NACK)",
14913,"W","77","F4","05",,"Sets Data acquisition options".
14914,"W","77","F5","01",,"Sets Configuration".
14915,"W","77","F7",,,"Wants to read: Pressure"
14916,"R","77","61","23","00 (NACK)",
15281,"W","77","F4","05",,"Sets Data acquisition options".
15282,"W","77","F5","01",,"Sets Configuration".
15283,"W","77","F7",,,"Wants to read: Pressure"
15284,"R","77","61","25","00 (NACK)",
15646,"W","77","F4","05",,"Sets Data acquisition options".
15647,"W","77","F5","01",,"Sets Configuration".
15648,"W","77","F7",,,"Wants to read: Pressure"
15649,"R","77","61","24","00 (NACK)",
16011,"W","77","F4","05",,"Sets Data acquisition options".
16012,"W","77","F5","01",,"Sets Configuration".
16013,"W","77","F7",,,"Wants to read: Pressure"
16014,"R","77","61","25","00 (NACK)",
16376,"W","77","F4","05",,"Sets Data acquisition options".
16377,"W","77","F5","01",,"Sets Configuration".
16378,"W","77","F7",,,"Wants to read: Pressure"
16379,"R","77","61","24","00 (NACK)",
16741,"W","77","F4","05",,"Sets Data acquisition options".
16742,"W","77","F5","01",,"Sets Configuration".
16743,"W","77","F7",,,"Wants to read: Pressure"
16744,"R","77","61","24","00 (NACK)",
17106,"W","77","F4","05",,"Sets Data acquisition options".
17107,"W","77","F5","01",,"Sets Configuration".
17108,"W","77","F7",,,"Wants to read: Pressure"
17109,"R","77","61","24","00 (NACK)",
17471,"W","77","F4","05",,"Sets Data acquisition options".
17472,"W","77","F5","01",,"Sets Configuration".
17473,"W","77","F7",,,"Wants to read: Pressure"
17474,"R","77","61","25","00 (NACK)",
17836,"W","77","F4","05",,"Sets Data acquisition options".
17837,"W","77","F5","01",,"Sets Configuration".
17838,"W","77","F7",,,"Wants to read: Pressure"
17839,"R","77","61","24","00 (NACK)",
18201,"W","77","F4","05",,"Sets Data acquisition options".
18202,"W","77","F5","01",,"Sets Configuration".
18203,"W","77","F7",,,"Wants to read: Pressure"
18204,"R","77","61","23","00 (NACK)",
18566,"W","77","F4","05",,"Sets Data acquisition options".
18567,"W","77","F5","01",,"Sets Configuration".
18568,"W","77","F7",,,"Wants to read: Pressure"
18569,"R","77","61","24","00 (NACK)",
18931,"W","77","F4","05",,"Sets Data acquisition options".
18932,"W","77","F5","01",,"Sets Configuration".
18933,"W","77","F7",,,"Wants to read: Pressure"
18934,"R","77","61","24","00 (NACK)",
19296,"W","77","F4","05",,"Sets Data acquisition options".
19297,"W","77","F5","01",,"Sets Configuration".
19298,"W","77","F7",,,"Wants to read: Pressure"
19299,"R","77","61","27","00 (NACK)",
19661,"W","77","F4","05",,"Sets Data acquisition options".
19662,"W","77","F5","01",,"Sets Configuration".
19663,"W","77","F7",,,"Wants to read: Pressure"
19664,"R","77","61","23","00 (NACK)",
20026,"W","77","F4","05",,"Sets Data acquisition options".
20027,"W","77","F5","01",,"Sets Configuration".
20028,"W","77","F7",,,"Wants to read: Pressure"
20029,"R","77","61","24","00 (NACK)",
20391,"W","77","F4","05",,"Sets Data acquisition options".
20392,"W","77","F5","01",,"Sets Configuration".
20393,"W","77","F7",,,"Wants to read: Pressure"
20394,"R","77","61","24","00 (NACK)",
20759,"W","77","F4","05",,"Sets Data acquisition options".
20760,"W","77","F5","01",,"Sets Configuration".
20761,"W","77","F7",,,"Wants to read: Pressure"
20762,"R","77","61","27","00 (NACK)",
21124,"W","77","F4","05",,"Sets Data acquisition options".
21125,"W","77","F5","01",,"Sets Configuration".
21126,"W","77","F7",,,"Wants to read: Pressure"
21127,"R","77","61","24","00 (NACK)",
21489,"W","77","F4","05",,"Sets Data acquisition options".
21490,"W","77","F5","01",,"Sets Configuration".
21491,"W","77","F7",,,"Wants to read: Pressure"
21492,"R","77","61","26","00 (NACK)",
21854,"W","77","F4","05",,"Sets Data acquisition options".
21855,"W","77","F5","01",,"Sets Configuration".
21856,"W","77","F7",,,"Wants to read: Pressure"
21857,"R","77","61","26","00 (NACK)",
22219,"W","77","F4","05",,"Sets Data acquisition options".
22220,"W","77","F5","01",,"Sets Configuration".
22221,"W","77","F7",,,"Wants to read: Pressure"
22222,"R","77","61","24","00 (NACK)",
22584,"W","77","F4","05",,"Sets Data acquisition options".
22585,"W","77","F5","01",,"Sets Configuration".
22586,"W","77","F7",,,"Wants to read: Pressure"
22587,"R","77","61","25","00 (NACK)",
22949,"W","77","F4","05",,"Sets Data acquisition options".
22950,"W","77","F5","01",,"Sets Configuration".
22951,"W","77","F7",,,"Wants to read: Pressure"
22952,"R","77","61","25","00 (NACK)",
23314,"W","77","F4","05",,"Sets Data acquisition options".
23315,"W","77","F5","01",,"Sets Configuration".
23316,"W","77","F7",,,"Wants to read: Pressure"
23317,"R","77","61","24","00 (NACK)",
23679,"W","77","F4","05",,"Sets Data acquisition options".
23680,"W","77","F5","01",,"Sets Configuration".
23681,"W","77","F7",,,"Wants to read: Pressure"
23682,"R","77","61","25","00 (NACK)",
24044,"W","77","F4","05",,"Sets Data acquisition options".
24045,"W","77","F5","01",,"Sets Configuration".
24046,"W","77","F7",,,"Wants to read: Pressure"
24047,"R","77","61","26","00 (NACK)",
24409,"W","77","F4","05",,"Sets Data acquisition options".
24410,"W","77","F5","01",,"Sets Configuration".
24411,"W","77","F7",,,"Wants to read: Pressure"
24412,"R","77","61","22","00 (NACK)",
24774,"W","77","F4","05",,"Sets Data acquisition options".
24775,"W","77","F5","01",,"Sets Configuration".
24776,"W","77","F7",,,"Wants to read: Pressure"
24777,"R","77","61","24","00 (NACK)",
25139,"W","77","F4","05",,"Sets Data acquisition options".
25140,"W","77","F5","01",,"Sets Configuration".
25141,"W","77","F7",,,"Wants to read: Pressure"
25142,"R","77","61","23","00 (NACK)",
25504,"W","77","F4","05",,"Sets Data acquisition options".
25505,"W","77","F5","01",,"Sets Configuration".
25506,"W","77","F7",,,"Wants to read: Pressure"
25507,"R","77","61","26","00 (NACK)",
25869,"W","77","F4","05",,"Sets Data acquisition options".
25870,"W","77","F5","01",,"Sets Configuration".
25871,"W","77","F7",,,"Wants to read: Pressure"
25872,"R","77","61","22","00 (NACK)",
26237,"W","77","F4","05",,"Sets Data acquisition options".
26238,"W","77","F5","01",,"Sets Configuration".
26239,"W","77","F7",,,"Wants to read: Pressure"
26240,"R","77","61","24","00 (NACK)",
26602,"W","77","F4","05",,"Sets Data acquisition options".
26603,"W","77","F5","01",,"Sets Configuration".
26604,"W","77","F7",,,"Wants to read: Pressure"
26605,"R","77","61","21","00 (NACK)",
26967,"W","77","F4","05",,"Sets Data acquisition options".
26968,"W","77","F5","01",,"Sets Configuration".
26969,"W","77","F7",,,"Wants to read: Pressure"
26970,"R","77","61","24","00 (NACK)",
27332,"W","77","F4","05",,"Sets Data acquisition options".
27333,"W","77","F5","01",,"Sets Configuration".
27334,"W","77","F7",,,"Wants to read: Pressure"
27335,"R","77","61","24","00 (NACK)",
27697,"W","77","F4","05",,"Sets Data acquisition options".
27698,"W","77","F5","01",,"Sets Configuration".
27699,"W","77","F7",,,"Wants to read: Pressure"
27700,"R","77","61","23","00 (NACK)",
28062,"W","77","F4","05",,"Sets Data acquisition options".
28063,"W","77","F5","01",,"Sets Configuration".
28064,"W","77","F7",,,"Wants to read: Pressure"
28065,"R","77","61","23","00 (NACK)",
28427,"W","77","F4","05",,"Sets Data acquisition options".
28428,"W","77","F5","01",,"Sets Configuration".
28429,"W","77","F7",,,"Wants to read: Pressure"
28430,"R","77","61","22","00 (NACK)",
28792,"W","77","F4","05",,"Sets Data acquisition options".
28793,"W","77","F5","01",,"Sets Configuration".
28794,"W","77","F7",,,"Wants to read: Pressure"
28795,"R","77","61","24","00 (NACK)",
29157,"W","77","F4","05",,"Sets Data acquisition options".
29158,"W","77","F5","01",,"Sets Configuration".
29159,"W","77","F7",,,"Wants to read: Pressure"
29160,"R","77","61","22","00 (NACK)",
29522,"W","77","F4","05",,"Sets Data acquisition options".
29523,"W","77","F5","01",,"Sets Configuration".
29524,"W","77","F7",,,"Wants to read: Pressure"
29525,"R","77","61","24","00 (NACK)",
29887,"W","77","F4","05",,"Sets Data acquisition options".
29888,"W","77","F5","01",,"Sets Configuration".
29889,"W","77","F7",,,"Wants to read: Pressure"
29890,"R","77","61","24","00 (NACK)",
30252,"W","77","F4","05",,"Sets Data acquisition options".
30253,"W","77","F5","01",,"Sets Configuration".
30254,"W","77","F7",,,"Wants to read: Pressure"
30255,"R","77","61","24","00 (NACK)",
30617,"W","77","F4","05",,"Sets Data acquisition options".
30618,"W","77","F5","01",,"Sets Configuration".
30619,"W","77","F7",,,"Wants to read: Pressure"
30620,"R","77","61","24","00 (NACK)",
30982,"W","77","F4","05",,"Sets Data acquisition options".
30983,"W","77","F5","01",,"Sets Configuration".
30984,"W","77","F7",,,"Wants to read: Pressure"
30985,"R","77","61","23","00 (NACK)",
31347,"W","77","F4","05",,"Sets Data acquisition options".
31348,"W","77","F5","01",,"Sets Configuration".
31349,"W","77","F7",,,"Wants to read: Pressure"
31350,"R","77","61","24","00 (NACK)",
31715,"W","77","F4","05",,"Sets Data acquisition options".
31716,"W","77","F5","01",,"Sets Configuration".
31717,"W","77","F7",,,"Wants to read: Pressure"
31718,"R","77","61","24","00 (NACK)",
32080,"W","77","F4","05",,"Sets Data acquisition options".
32081,"W","77","F5","01",,"Sets Configuration".
32082,"W","77","F7",,,"Wants to read: Pressure"
32083,"R","77","61","24","00 (NACK)",
32445,"W","77","F4","05",,"Sets Data acquisition options".
32446,"W","77","F5","01",,"Sets Configuration".
32447,"W","77","F7",,,"Wants to read: Pressure"
32448,"R","77","61","24","00 (NACK)",
32810,"W","77","F4","05",,"Sets Data acquisition options".
32811,"W","77","F5","01",,"Sets Configuration".
32812,"W","77","F7",,,"Wants to read: Pressure"
32813,"R","77","61","23","00 (NACK)",
33175,"W","77","F4","05",,"Sets Data acquisition options".
33176,"W","77","F5","01",,"Sets Configuration".
33177,"W","77","F7",,,"Wants to read: Pressure"
33178,"R","77","61","22","00 (NACK)",
33540,"W","77","F4","05",,"Sets Data acquisition options".
33541,"W","77","F5","01",,"Sets Configuration".
33542,"W","77","F7",,,"Wants to read: Pressure"
33543,"R","77","61","22","00 (NACK)",
33905,"W","77","F4","05",,"Sets Data acquisition options".
33906,"W","77","F5","01",,"Sets Configuration".
33907,"W","77","F7",,,"Wants to read: Pressure"
33908,"R","77","61","24","00 (NACK)",
34270,"W","77","F4","05",,"Sets Data acquisition options".
34271,"W","77","F5","01",,"Sets Configuration".
34272,"W","77","F7",,,"Wants to read: Pressure"
34273,"R","77","61","23","00 (NACK)",
34635,"W","77","F4","05",,"Sets Data acquisition options".
34636,"W","77","F5","01",,"Sets Configuration".
34637,"W","77","F7",,,"Wants to read: Pressure"
34638,"R","77","61","22","00 (NACK)",
35000,"W","77","F4","05",,"Sets Data acquisition options".
35001,"W","77","F5","01",,"Sets Configuration".
35002,"W","77","F7",,,"Wants to read: Pressure"
35003,"R","77","61","24","00 (NACK)",
35365,"W","77","F4","05",,"Sets Data acquisition options".
35366,"W","77","F5","01",,"Sets Configuration".
35367,"W","77","F7",,,"Wants to read: Pressure"
35368,"R","77","61","24","00 (NACK)",
35730,"W","77","F4","05",,"Sets Data acquisition options".
35731,"W","77","F5","01",,"Sets Configuration".
35732,"W","77","F7",,,"Wants to read: Pressure"
35733,"R","77","61","25","00 (NACK)",
36095,"W","77","F4","05",,"Sets Data acquisition options".
36096,"W","77","F5","01",,"Sets Configuration".
36097,"W","77","F7",,,"Wants to read: Pressure"
36098,"R","77","61","22","00 (NACK)",
36460,"W","77","F4","05",,"Sets Data acquisition options".
36461,"W","77","F5","01",,"Sets Configuration".
36462,"W","77","F7",,,"Wants to read: Pressure"
36463,"R","77","61","24","00 (NACK)",
36825,"W","77","F4","05",,"Sets Data acquisition options".
36826,"W","77","F5","01",,"Sets Configuration".
36827,"W","77","F7",,,"Wants to read: Pressure"
36828,"R","77","61","22","00 (NACK)",
37193,"W","77","F4","05",,"Sets Data acquisition options".
37194,"W","77","F5","01",,"Sets Configuration".
37195,"W","77","F7",,,"Wants to read: Pressure"
37196,"R","77","61","22","00 (NACK)",
37558,"W","77","F4","05",,"Sets Data acquisition options".
37559,"W","77","F5","01",,"Sets Configuration".
37560,"W","77","F7",,,"Wants to read: Pressure"
37561,"R","77","61","24","00 (NACK)",
37923,"W","77","F4","05",,"Sets Data acquisition options".
37924,"W","77","F5","01",,"Sets Configuration".
37925,"W","77","F7",,,"Wants to read: Pressure"
37926,"R","77","61","21","00 (NACK)",
38288,"W","77","F4","05",,"Sets Data acquisition options".
38289,"W","77","F5","01",,"Sets Configuration".
38290,"W","77","F7",,,"Wants to read: Pressure"
38291,"R","77","61","20","00 (NACK)",
38653,"W","77","F4","05",,"Sets Data acquisition options".
38654,"W","77","F5","01",,"Sets Configuration".
38655,"W","77","F7",,,"Wants to read: Pressure"
38656,"R","77","61","22","00 (NACK)",
39018,"W","77","F4","05",,"Sets Data acquisition options".
39019,"W","77","F5","01",,"Sets Configuration".
39020,"W","77","F7",,,"Wants to read: Pressure"
39021,"R","77","61","24","00 (NACK)",
39383,"W","77","F4","05",,"Sets Data acquisition options".
39384,"W","77","F5","01",,"Sets Configuration".
39385,"W","77","F7",,,"Wants to read: Pressure"
39386,"R","77","61","23","00 (NACK)",
39748,"W","77","F4","05",,"Sets Data acquisition options".
39749,"W","77","F5","01",,"Sets Configuration".
39750,"W","77","F7",,,"Wants to read: Pressure"
39751,"R","77","61","23","00 (NACK)",
40113,"W","77","F4","05",,"Sets Data acquisition options".
40114,"W","77","F5","01",,"Sets Configuration".
40115,"W","77","F7",,,"Wants to read: Pressure"
40116,"R","77","61","20","00 (NACK)",
40478,"W","77","F4","05",,"Sets Data acquisition options".
40479,"W","77","F5","01",,"Sets Configuration".
40480,"W","77","F7",,,"Wants to read: Pressure"
40481,"R","77","61","20","00 (NACK)",
40843,"W","77","F4","05",,"Sets Data acquisition options".
40844,"W","77","F5","01",,"Sets Configuration".
40845,"W","77","F7",,,"Wants to read: Pressure"
40846,"R","77","61","20","00 (NACK)",
41208,"W","77","F4","05",,"Sets Data acquisition options".
41209,"W","77","F5","01",,"Sets Configuration".
41210,"W","77","F7",,,"Wants to read: Pressure"
41211,"R","77","61","24","00 (NACK)",
41573,"W","77","F4","05",,"Sets Data acquisition options".
41574,"W","77","F5","01",,"Sets Configuration".
41575,"W","77","F7",,,"Wants to read: Pressure"
41576,"R","77","61","20","00 (NACK)",
41938,"W","77","F4","05",,"Sets Data acquisition options".
41939,"W","77","F5","01",,"Sets Configuration".
41940,"W","77","F7",,,"Wants to read: Pressure"
41941,"R","77","61","22","00 (NACK)",
42303,"W","77","F4","05",,"Sets Data acquisition options".
42304,"W","77","F5","01",,"Sets Configuration".
42305,"W","77","F7",,,"Wants to read: Pressure"
42306,"R","77","61","21","00 (NACK)",
42671,"W","77","F4","05",,"Sets Data acquisition options".
42672,"W","77","F5","01",,"Sets Configuration".
42673,"W","77","F7",,,"Wants to read: Pressure"
42674,"R","77","61","20","00 (NACK)",
43036,"W","77","F4","05",,"Sets Data acquisition options".
43037,"W","77","F5","01",,"Sets Configuration".
43038,"W","77","F7",,,"Wants to read: Pressure"
43039,"R","77","61","22","00 (NACK)",
43401,"W","77","F4","05",,"Sets Data acquisition options".
43402,"W","77","F5","01",,"Sets Configuration".
43403,"W","77","F7",,,"Wants to read: Pressure"
43404,"R","77","61","24","00 (NACK)",
43766,"W","77","F4","05",,"Sets Data acquisition options".
43767,"W","77","F5","01",,"Sets Configuration".
43768,"W","77","F7",,,"Wants to read: Pressure"
43769,"R","77","61","22","00 (NACK)",
44131,"W","77","F4","05",,"Sets Data acquisition options".
44132,"W","77","F5","01",,"Sets Configuration".
44133,"W","77","F7",,,"Wants to read: Pressure"
44134,"R","77","61","20","00 (NACK)",
44496,"W","77","F4","05",,"Sets Data acquisition options".
44497,"W","77","F5","01",,"Sets Configuration".
44498,"W","77","F7",,,"Wants to read: Pressure"
44499,"R","77","61","20","00 (NACK)",
44861,"W","77","F4","05",,"Sets Data acquisition options".
44862,"W","77","F5","01",,"Sets Configuration".
44863,"W","77","F7",,,"Wants to read: Pressure"
44864,"R","77","61","22","00 (NACK)",
45226,"W","77","F4","05",,"Sets Data acquisition options".
45227,"W","77","F5","01",,"Sets Configuration".
45228,"W","77","F7",,,"Wants to read: Pressure"
45229,"R","77","61","21","00 (NACK)",
45591,"W","77","F4","05",,"Sets Data acquisition options".
45592,"W","77","F5","01",,"Sets Configuration".
45593,"W","77","F7",,,"Wants to read: Pressure"
45594,"R","77","61","20","00 (NACK)",
45956,"W","77","F4","05",,"Sets Data acquisition options".
45957,"W","77","F5","01",,"Sets Configuration".
45958,"W","77","F7",,,"Wants to read: Pressure"
45959,"R","77","61","21","00 (NACK)",
46321,"W","77","F4","05",,"Sets Data acquisition options".
46322,"W","77","F5","01",,"Sets Configuration".
46323,"W","77","F7",,,"Wants to read: Pressure"
46324,"R","77","61","22","00 (NACK)",
46686,"W","77","F4","05",,"Sets Data acquisition options".
46687,"W","77","F5","01",,"Sets Configuration".
46688,"W","77","F7",,,"Wants to read: Pressure"
46689,"R","77","61","22","00 (NACK)",
47051,"W","77","F4","05",,"Sets Data acquisition options".
47052,"W","77","F5","01",,"Sets Configuration".
47053,"W","77","F7",,,"Wants to read: Pressure"
47054,"R","77","61","22","00 (NACK)",
47416,"W","77","F4","05",,"Sets Data acquisition options".
47417,"W","77","F5","01",,"Sets Configuration".
47418,"W","77","F7",,,"Wants to read: Pressure"
47419,"R","77","61","20","00 (NACK)",
47781,"W","77","F4","05",,"Sets Data acquisition options".
47782,"W","77","F5","01",,"Sets Configuration".
47783,"W","77","F7",,,"Wants to read: Pressure"
47784,"R","77","61","1E","00 (NACK)",
48149,"W","77","F4","05",,"Sets Data acquisition options".
48150,"W","77","F5","01",,"Sets Configuration".
48151,"W","77","F7",,,"Wants to read: Pressure"
48152,"R","77","61","21","00 (NACK)",
48514,"W","77","F4","05",,"Sets Data acquisition options".
48515,"W","77","F5","01",,"Sets Configuration".
48516,"W","77","F7",,,"Wants to read: Pressure"
48517,"R","77","61","20","00 (NACK)",
48879,"W","77","F4","05",,"Sets Data acquisition options".
48880,"W","77","F5","01",,"Sets Configuration".
48881,"W","77","F7",,,"Wants to read: Pressure"
48882,"R","77","61","1E","00 (NACK)",
49244,"W","77","F4","05",,"Sets Data acquisition options".
49245,"W","77","F5","01",,"Sets Configuration".
49246,"W","77","F7",,,"Wants to read: Pressure"
49247,"R","77","61","1D","00 (NACK)",
49609,"W","77","F4","05",,"Sets Data acquisition options".
49610,"W","77","F5","01",,"Sets Configuration".
49611,"W","77","F7",,,"Wants to read: Pressure"
49612,"R","77","61","1F","00 (NACK)",
49974,"W","77","F4","05",,"Sets Data acquisition options".
49975,"W","77","F5","01",,"Sets Configuration".
49976,"W","77","F7",,,"Wants to read: Pressure"
49977,"R","77","61","1F","00 (NACK)",
50339,"W","77","F4","05",,"Sets Data acquisition options".
50340,"W","77","F5","01",,"Sets Configuration".
50341,"W","77","F7",,,"Wants to read: Pressure"
50342,"R","77","61","21","00 (NACK)",
50704,"W","77","F4","05",,"Sets Data acquisition options".
50705,"W","77","F5","01",,"Sets Configuration".
50706,"W","77","F7",,,"Wants to read: Pressure"
50707,"R","77","61","22","00 (NACK)",
51069,"W","77","F4","05",,"Sets Data acquisition options".
51070,"W","77","F5","01",,"Sets Configuration".
51071,"W","77","F7",,,"Wants to read: Pressure"
51072,"R","77","61","24","00 (NACK)",
51434,"W","77","F4","05",,"Sets Data acquisition options".
51435,"W","77","F5","01",,"Sets Configuration".
51436,"W","77","F7",,,"Wants to read: Pressure"
51437,"R","77","61","24","00 (NACK)",
51799,"W","77","F4","05",,"Sets Data acquisition options".
51800,"W","77","F5","01",,"Sets Configuration".
51801,"W","77","F7",,,"Wants to read: Pressure"
51802,"R","77","61","23","00 (NACK)",
52164,"W","77","F4","05",,"Sets Data acquisition options".
52165,"W","77","F5","01",,"Sets Configuration".
52166,"W","77","F7",,,"Wants to read: Pressure"
52167,"R","77","61","24","00 (NACK)",
52529,"W","77","F4","05",,"Sets Data acquisition options".
52530,"W","77","F5","01",,"Sets Configuration".
52531,"W","77","F7",,,"Wants to read: Pressure"
52532,"R","77","61","22","00 (NACK)",
52894,"W","77","F4","05",,"Sets Data acquisition options".
52895,"W","77","F5","01",,"Sets Configuration".
52896,"W","77","F7",,,"Wants to read: Pressure"
52897,"R","77","61","24","00 (NACK)",
53259,"W","77","F4","05",,"Sets Data acquisition options".
53260,"W","77","F5","01",,"Sets Configuration".
53261,"W","77","F7",,,"Wants to read: Pressure"
53262,"R","77","61","23","00 (NACK)",
53627,"W","77","F4","05",,"Sets Data acquisition options".
53628,"W","77","F5","01",,"Sets Configuration".
53629,"W","77","F7",,,"Wants to read: Pressure"
53630,"R","77","61","24","00 (NACK)",
53992,"W","77","F4","05",,"Sets Data acquisition options".
53993,"W","77","F5","01",,"Sets Configuration".
53994,"W","77","F7",,,"Wants to read: Pressure"
53995,"R","77","61","26","00 (NACK)",
54357,"W","77","F4","05",,"Sets Data acquisition options".
54358,"W","77","F5","01",,"Sets Configuration".
54359,"W","77","F7",,,"Wants to read: Pressure"
54360,"R","77","61","25","00 (NACK)",
54722,"W","77","F4","05",,"Sets Data acquisition options".
54723,"W","77","F5","01",,"Sets Configuration".
54724,"W","77","F7",,,"Wants to read: Pressure"
54725,"R","77","61","29","00 (NACK)",
55087,"W","77","F4","05",,"Sets Data acquisition options".
55088,"W","77","F5","01",,"Sets Configuration".
55089,"W","77","F7",,,"Wants to read: Pressure"
55090,"R","77","61","24","00 (NACK)",
55452,"W","77","F4","05",,"Sets Data acquisition options".
55453,"W","77","F5","01",,"Sets Configuration".
55454,"W","77","F7",,,"Wants to read: Pressure"
55455,"R","77","61","24","00 (NACK)",
55817,"W","77","F4","05",,"Sets Data acquisition options".
55818,"W","77","F5","01",,"Sets Configuration".
55819,"W","77","F7",,,"Wants to read: Pressure"
55820,"R","77","61","25","00 (NACK)",
56182,"W","77","F4","05",,"Sets Data acquisition options".
56183,"W","77","F5","01",,"Sets Configuration".
56184,"W","77","F7",,,"Wants to read: Pressure"
56185,"R","77","61","27","00 (NACK)",
56547,"W","77","F4","05",,"Sets Data acquisition options".
56548,"W","77","F5","01",,"Sets Configuration".
56549,"W","77","F7",,,"Wants to read: Pressure"
56550,"R","77","61","25","00 (NACK)",
56912,"W","77","F4","05",,"Sets Data acquisition options".
56913,"W","77","F5","01",,"Sets Configuration".
56914,"W","77","F7",,,"Wants to read: Pressure"
56915,"R","77","61","26","00 (NACK)",
57277,"W","77","F4","05",,"Sets Data acquisition options".
57278,"W","77","F5","01",,"Sets Configuration".
57279,"W","77","F7",,,"Wants to read: Pressure"
57280,"R","77","61","23","00 (NACK)",
57642,"W","77","F4","05",,"Sets Data acquisition options".
57643,"W","77","F5","01",,"Sets Configuration".
57644,"W","77","F7",,,"Wants to read: Pressure"
57645,"R","77","61","25","00 (NACK)",
58007,"W","77","F4","05",,"Sets Data acquisition options".
58008,"W","77","F5","01",,"Sets Configuration".
58009,"W","77","F7",,,"Wants to read: Pressure"
58010,"R","77","61","26","00 (NACK)",
58372,"W","77","F4","05",,"Sets Data acquisition options".
58373,"W","77","F5","01",,"Sets Configuration".
58374,"W","77","F7",,,"Wants to read: Pressure"
58375,"R","77","61","26","00 (NACK)",
58737,"W","77","F4","05",,"Sets Data acquisition options".
58738,"W","77","F5","01",,"Sets Configuration".
58739,"W","77","F7",,,"Wants to read: Pressure"
58740,"R","77","61","22","00 (NACK)",
59105,"W","77","F4","05",,"Sets Data acquisition options".
59106,"W","77","F5","01",,"Sets Configuration".
59107,"W","77","F7",,,"Wants to read: Pressure"
59108,"R","77","61","21","00 (NACK)",
59470,"W","77","F4","05",,"Sets Data acquisition options".
59471,"W","77","F5","01",,"Sets Configuration".
59472,"W","77","F7",,,"Wants to read: Pressure"
59473,"R","77","61","23","00 (NACK)",
59835,"W","77","F4","05",,"Sets Data acquisition options".
59836,"W","77","F5","01",,"Sets Configuration".
59837,"W","77","F7",,,"Wants to read: Pressure"
59838,"R","77","61","25","00 (NACK)",
60200,"W","77","F4","05",,"Sets Data acquisition options".
60201,"W","77","F5","01",,"Sets Configuration".
60202,"W","77","F7",,,"Wants to read: Pressure"
60203,"R","77","61","23","00 (NACK)",
60565,"W","77","F4","05",,"Sets Data acquisition options".
60566,"W","77","F5","01",,"Sets Configuration".
60567,"W","77","F7",,,"Wants to read: Pressure"
60568,"R","77","61","25","00 (NACK)",
60930,"W","77","F4","05",,"Sets Data acquisition options".
60931,"W","77","F5","01",,"Sets Configuration".
60932,"W","77","F7",,,"Wants to read: Pressure"
60933,"R","77","61","21","00 (NACK)",
61295,"W","77","F4","05",,"Sets Data acquisition options".
61296,"W","77","F5","01",,"Sets Configuration".
61297,"W","77","F7",,,"Wants to read: Pressure"
61298,"R","77","61","24","00 (NACK)",
61660,"W","77","F4","05",,"Sets Data acquisition options".
61661,"W","77","F5","01",,"Sets Configuration".
61662,"W","77","F7",,,"Wants to read: Pressure"
61663,"R","77","61","24","00 (NACK)",
62025,"W","77","F4","05",,"Sets Data acquisition options".
62026,"W","77","F5","01",,"Sets Configuration".
62027,"W","77","F7",,,"Wants to read: Pressure"
62028,"R","77","61","23","00 (NACK)",
62390,"W","77","F4","05",,"Sets Data acquisition options".
62391,"W","77","F5","01",,"Sets Configuration".
62392,"W","77","F7",,,"Wants to read: Pressure"
62393,"R","77","61","24","00 (NACK)",
62755,"W","77","F4","05",,"Sets Data acquisition options".
62756,"W","77","F5","01",,"Sets Configuration".
62757,"W","77","F7",,,"Wants to read: Pressure"
62758,"R","77","61","26","00 (NACK)",
63120,"W","77","F4","05",,"Sets Data acquisition options".
63121,"W","77","F5","01",,"Sets Configuration".
63122,"W","77","F7",,,"Wants to read: Pressure"
63123,"R","77","61","24","00 (NACK)",
63485,"W","77","F4","05",,"Sets Data acquisition options".
63486,"W","77","F5","01",,"Sets Configuration".
63487,"W","77","F7",,,"Wants to read: Pressure"
63488,"R","77","61","23","00 (NACK)",
63850,"W","77","F4","05",,"Sets Data acquisition options".
63851,"W","77","F5","01",,"Sets Configuration".
63852,"W","77","F7",,,"Wants to read: Pressure"
63853,"R","77","61","24","00 (NACK)",
64215,"W","77","F4","05",,"Sets Data acquisition options".
64216,"W","77","F5","01",,"Sets Configuration".
64217,"W","77","F7",,,"Wants to read: Pressure"
64218,"R","77","61","24","00 (NACK)",
64583,"W","77","F4","05",,"Sets Data acquisition options".
64584,"W","77","F5","01",,"Sets Configuration".
64585,"W","77","F7",,,"Wants to read: Pressure"
64586,"R","77","61","24","00 (NACK)",
64948,"W","77","F4","05",,"Sets Data acquisition options".
64949,"W","77","F5","01",,"Sets Configuration".
64950,"W","77","F7",,,"Wants to read: Pressure"
64951,"R","77","61","24","00 (NACK)",
65313,"W","77","F4","05",,"Sets Data acquisition options".
65314,"W","77","F5","01",,"Sets Configuration".
65315,"W","77","F7",,,"Wants to read: Pressure"
65316,"R","77","61","25","00 (NACK)",
65678,"W","77","F4","05",,"Sets Data acquisition options".
65679,"W","77","F5","01",,"Sets Configuration".
65680,"W","77","F7",,,"Wants to read: Pressure"
65681,"R","77","61","24","00 (NACK)",
66043,"W","77","F4","05",,"Sets Data acquisition options".
66044,"W","77","F5","01",,"Sets Configuration".
66045,"W","77","F7",,,"Wants to read: Pressure"
66046,"R","77","61","24","00 (NACK)",
66408,"W","77","F4","05",,"Sets Data acquisition options".
66409,"W","77","F5","01",,"Sets Configuration".
66410,"W","77","F7",,,"Wants to read: Pressure"
66411,"R","77","61","25","00 (NACK)",
66773,"W","77","F4","05",,"Sets Data acquisition options".
66774,"W","77","F5","01",,"Sets Configuration".
66775,"W","77","F7",,,"Wants to read: Pressure"
66776,"R","77","61","24","00 (NACK)",
67138,"W","77","F4","05",,"Sets Data acquisition options".
67139,"W","77","F5","01",,"Sets Configuration".
67140,"W","77","F7",,,"Wants to read: Pressure"
67141,"R","77","61","24","00 (NACK)",
67503,"W","77","F4","05",,"Sets Data acquisition options".
67504,"W","77","F5","01",,"Sets Configuration".
67505,"W","77","F7",,,"Wants to read: Pressure"
67506,"R","77","61","24","00 (NACK)",
67868,"W","77","F4","05",,"Sets Data acquisition options".
67869,"W","77","F5","01",,"Sets Configuration".
67870,"W","77","F7",,,"Wants to read: Pressure"
67871,"R","77","61","24","00 (NACK)",
68233,"W","77","F4","05",,"Sets Data acquisition options".
68234,"W","77","F5","01",,"Sets Configuration".
68235,"W","77","F7",,,"Wants to read: Pressure"
68236,"R","77","61","23","00 (NACK)",
68598,"W","77","F4","05",,"Sets Data acquisition options".
68599,"W","77","F5","01",,"Sets Configuration".
68600,"W","77","F7",,,"Wants to read: Pressure"
68601,"R","77","61","24","00 (NACK)",
68963,"W","77","F4","05",,"Sets Data acquisition options".
68964,"W","77","F5","01",,"Sets Configuration".
68965,"W","77","F7",,,"Wants to read: Pressure"
68966,"R","77","61","24","00 (NACK)",
69328,"W","77","F4","05",,"Sets Data acquisition options".
69329,"W","77","F5","01",,"Sets Configuration".
69330,"W","77","F7",,,"Wants to read: Pressure"
69331,"R","77","61","24","00 (NACK)",
69693,"W","77","F4","05",,"Sets Data acquisition options".
69694,"W","77","F5","01",,"Sets Configuration".
69695,"W","77","F7",,,"Wants to read: Pressure"
69696,"R","77","61","22","00 (NACK)",
70061,"W","77","F4","05",,"Sets Data acquisition options".
70062,"W","77","F5","01",,"Sets Configuration".
70063,"W","77","F7",,,"Wants to read: Pressure"
70064,"R","77","61","23","00 (NACK)",
70426,"W","77","F4","05",,"Sets Data acquisition options".
70427,"W","77","F5","01",,"Sets Configuration".
70428,"W","77","F7",,,"Wants to read: Pressure"
70429,"R","77","61","22","00 (NACK)",
70791,"W","77","F4","05",,"Sets Data acquisition options".
70792,"W","77","F5","01",,"Sets Configuration".
70793,"W","77","F7",,,"Wants to read: Pressure"
70794,"R","77","61","22","00 (NACK)",
71156,"W","77","F4","05",,"Sets Data acquisition options".
71157,"W","77","F5","01",,"Sets Configuration".
71158,"W","77","F7",,,"Wants to read: Pressure"
71159,"R","77","61","22","00 (NACK)",
71521,"W","77","F4","05",,"Sets Data acquisition options".
71522,"W","77","F5","01",,"Sets Configuration".
71523,"W","77","F7",,,"Wants to read: Pressure"
71524,"R","77","61","22","00 (NACK)",
71886,"W","77","F4","05",,"Sets Data acquisition options".
71887,"W","77","F5","01",,"Sets Configuration".
71888,"W","77","F7",,,"Wants to read: Pressure"
71889,"R","77","61","24","00 (NACK)",
72263,"W","77","F4","05",,"Sets Data acquisition options".
72264,"W","77","F5","01",,"Sets Configuration".
72265,"W","77","F7",,,"Wants to read: Pressure"
72266,"R","77","61","24","00 (NACK)",
72628,"W","77","F4","05",,"Sets Data acquisition options".
72629,"W","77","F5","01",,"Sets Configuration".
72630,"W","77","F7",,,"Wants to read: Pressure"
72631,"R","77","61","21","00 (NACK)",
72993,"W","77","F4","05",,"Sets Data acquisition options".
72994,"W","77","F5","01",,"Sets Configuration".
72995,"W","77","F7",,,"Wants to read: Pressure"
72996,"R","77","61","24","00 (NACK)",
73358,"W","77","F4","05",,"Sets Data acquisition options".
73359,"W","77","F5","01",,"Sets Configuration".
73360,"W","77","F7",,,"Wants to read: Pressure"
73361,"R","77","61","23","00 (NACK)",
73723,"W","77","F4","05",,"Sets Data acquisition options".
73724,"W","77","F5","01",,"Sets Configuration".
73725,"W","77","F7",,,"Wants to read: Pressure"
73726,"R","77","61","23","00 (NACK)",
74088,"W","77","F4","05",,"Sets Data acquisition options".
74089,"W","77","F5","01",,"Sets Configuration".
74090,"W","77","F7",,,"Wants to read: Pressure"
74091,"R","77","61","24","00 (NACK)",
74453,"W","77","F4","05",,"Sets Data acquisition options".
74454,"W","77","F5","01",,"Sets Configuration".
74455,"W","77","F7",,,"Wants to read: Pressure"
74456,"R","77","61","26","00 (NACK)",
74818,"W","77","F4","05",,"Sets Data acquisition options".
74819,"W","77","F5","01",,"Sets Configuration".
74820,"W","77","F7",,,"Wants to read: Pressure"
74821,"R","77","61","24","00 (NACK)",
75183,"W","77","F4","05",,"Sets Data acquisition options".
75184,"W","77","F5","01",,"Sets Configuration".
75185,"W","77","F7",,,"Wants to read: Pressure"
75186,"R","77","61","22","00 (NACK)",
75551,"W","77","F4","05",,"Sets Data acquisition options".
75552,"W","77","F5","01",,"Sets Configuration".
75553,"W","77","F7",,,"Wants to read: Pressure"
75554,"R","77","61","25","00 (NACK)",
75916,"W","77","F4","05",,"Sets Data acquisition options".
75917,"W","77","F5","01",,"Sets Configuration".
75918,"W","77","F7",,,"Wants to read: Pressure"
75919,"R","77","61","24","00 (NACK)",
76281,"W","77","F4","05",,"Sets Data acquisition options".
76282,"W","77","F5","01",,"Sets Configuration".
76283,"W","77","F7",,,"Wants to read: Pressure"
76284,"R","77","61","25","00 (NACK)",
76646,"W","77","F4","05",,"Sets Data acquisition options".
76647,"W","77","F5","01",,"Sets Configuration".
76648,"W","77","F7",,,"Wants to read: Pressure"
76649,"R","77","61","22","00 (NACK)",
77011,"W","77","F4","05",,"Sets Data acquisition options".
77012,"W","77","F5","01",,"Sets Configuration".
77013,"W","77","F7",,,"Wants to read: Pressure"
77014,"R","77","61","21","00 (NACK)",
77376,"W","77","F4","05",,"Sets Data acquisition options".
77377,"W","77","F5","01",,"Sets Configuration".
77378,"W","77","F7",,,"Wants to read: Pressure"
77379,"R","77","61","24","00 (NACK)",
77741,"W","77","F4","05",,"Sets Data acquisition options".
77742,"W","77","F5","01",,"Sets Configuration".
77743,"W","77","F7",,,"Wants to read: Pressure"
77744,"R","77","61","23","00 (NACK)",
78106,"W","77","F4","05",,"Sets Data acquisition options".
78107,"W","77","F5","01",,"Sets Configuration".
78108,"W","77","F7",,,"Wants to read: Pressure"
78109,"R","77","61","25","00 (NACK)",
78471,"W","77","F4","05",,"Sets Data acquisition options".
78472,"W","77","F5","01",,"Sets Configuration".
78473,"W","77","F7",,,"Wants to read: Pressure"
78474,"R","77","61","23","00 (NACK)",
78836,"W","77","F4","05",,"Sets Data acquisition options".
78837,"W","77","F5","01",,"Sets Configuration".
78838,"W","77","F7",,,"Wants to read: Pressure"
78839,"R","77","61","24","00 (NACK)",
79201,"W","77","F4","05",,"Sets Data acquisition options".
79202,"W","77","F5","01",,"Sets Configuration".
79203,"W","77","F7",,,"Wants to read: Pressure"
79204,"R","77","61","22","00 (NACK)",
79566,"W","77","F4","05",,"Sets Data acquisition options".
79567,"W","77","F5","01",,"Sets Configuration".
79568,"W","77","F7",,,"Wants to read: Pressure"
79569,"R","77","61","24","00 (NACK)",
79931,"W","77","F4","05",,"Sets Data acquisition options".
79932,"W","77","F5","01",,"Sets Configuration".
79933,"W","77","F7",,,"Wants to read: Pressure"
79934,"R","77","61","23","00 (NACK)",
80296,"W","77","F4","05",,"Sets Data acquisition options".
80297,"W","77","F5","01",,"Sets Configuration".
80298,"W","77","F7",,,"Wants to read: Pressure"
80299,"R","77","61","22","00 (NACK)",
80661,"W","77","F4","05",,"Sets Data acquisition options".
80662,"W","77","F5","01",,"Sets Configuration".
80663,"W","77","F7",,,"Wants to read: Pressure"
80664,"R","77","61","24","00 (NACK)",
81029,"W","77","F4","05",,"Sets Data acquisition options".
81030,"W","77","F5","01",,"Sets Configuration".
81031,"W","77","F7",,,"Wants to read: Pressure"
81032,"R","77","61","21","00 (NACK)",
81394,"W","77","F4","05",,"Sets Data acquisition options".
81395,"W","77","F5","01",,"Sets Configuration".
81396,"W","77","F7",,,"Wants to read: Pressure"
81397,"R","77","61","23","00 (NACK)",
81759,"W","77","F4","05",,"Sets Data acquisition options".
81760,"W","77","F5","01",,"Sets Configuration".
81761,"W","77","F7",,,"Wants to read: Pressure"
81762,"R","77","61","21","00 (NACK)",
82124,"W","77","F4","05",,"Sets Data acquisition options".
82125,"W","77","F5","01",,"Sets Configuration".
82126,"W","77","F7",,,"Wants to read: Pressure"
82127,"R","77","61","24","00 (NACK)",
82489,"W","77","F4","05",,"Sets Data acquisition options".
82490,"W","77","F5","01",,"Sets Configuration".
82491,"W","77","F7",,,"Wants to read: Pressure"
82492,"R","77","61","22","00 (NACK)",
82854,"W","77","F4","05",,"Sets Data acquisition options".
82855,"W","77","F5","01",,"Sets Configuration".
82856,"W","77","F7",,,"Wants to read: Pressure"
82857,"R","77","61","23","00 (NACK)",
83219,"W","77","F4","05",,"Sets Data acquisition options".
83220,"W","77","F5","01",,"Sets Configuration".
83221,"W","77","F7",,,"Wants to read: Pressure"
83222,"R","77","61","23","00 (NACK)",
83584,"W","77","F4","05",,"Sets Data acquisition options".
83585,"W","77","F5","01",,"Sets Configuration".
83586,"W","77","F7",,,"Wants to read: Pressure"
83587,"R","77","61","24","00 (NACK)",
83949,"W","77","F4","05",,"Sets Data acquisition options".
83950,"W","77","F5","01",,"Sets Configuration".
83951,"W","77","F7",,,"Wants to read: Pressure"
83952,"R","77","61","22","00 (NACK)",
84323,"W","77","F4","05",,"Sets Data acquisition options".
84324,"W","77","F5","01",,"Sets Configuration".
84325,"W","77","F7",,,"Wants to read: Pressure"
84326,"R","77","61","22","00 (NACK)",
84688,"W","77","F4","05",,"Sets Data acquisition options".
84689,"W","77","F5","01",,"Sets Configuration".
84690,"W","77","F7",,,"Wants to read: Pressure"
84691,"R","77","61","24","00 (NACK)",
85053,"W","77","F4","05",,"Sets Data acquisition options".
85054,"W","77","F5","01",,"Sets Configuration".
85055,"W","77","F7",,,"Wants to read: Pressure"
85056,"R","77","61","22","00 (NACK)",
85418,"W","77","F4","05",,"Sets Data acquisition options".
85419,"W","77","F5","01",,"Sets Configuration".
85420,"W","77","F7",,,"Wants to read: Pressure"
85421,"R","77","61","22","00 (NACK)",
85783,"W","77","F4","05",,"Sets Data acquisition options".
85784,"W","77","F5","01",,"Sets Configuration".
85785,"W","77","F7",,,"Wants to read: Pressure"
85786,"R","77","61","25","00 (NACK)",
86148,"W","77","F4","05",,"Sets Data acquisition options".
86149,"W","77","F5","01",,"Sets Configuration".
86150,"W","77","F7",,,"Wants to read: Pressure"
86151,"R","77","61","22","00 (NACK)",
86516,"W","77","F4","05",,"Sets Data acquisition options".
86517,"W","77","F5","01",,"Sets Configuration".
86518,"W","77","F7",,,"Wants to read: Pressure"
86519,"R","77","61","23","00 (NACK)",
86881,"W","77","F4","05",,"Sets Data acquisition options".
86882,"W","77","F5","01",,"Sets Configuration".
86883,"W","77","F7",,,"Wants to read: Pressure"
86884,"R","77","61","24","00 (NACK)",
87246,"W","77","F4","05",,"Sets Data acquisition options".
87247,"W","77","F5","01",,"Sets Configuration".
87248,"W","77","F7",,,"Wants to read: Pressure"
87249,"R","77","61","22","00 (NACK)",
87611,"W","77","F4","05",,"Sets Data acquisition options".
87612,"W","77","F5","01",,"Sets Configuration".
87613,"W","77","F7",,,"Wants to read: Pressure"
87614,"R","77","61","24","00 (NACK)",
87976,"W","77","F4","05",,"Sets Data acquisition options".
87977,"W","77","F5","01",,"Sets Configuration".
87978,"W","77","F7",,,"Wants to read: Pressure"
87979,"R","77","61","24","00 (NACK)",
88341,"W","77","F4","05",,"Sets Data acquisition options".
88342,"W","77","F5","01",,"Sets Configuration".
88343,"W","77","F7",,,"Wants to read: Pressure"
88344,"R","77","61","24","00 (NACK)",
88706,"W","77","F4","05",,"Sets Data acquisition options".
88707,"W","77","F5","01",,"Sets Configuration".
88708,"W","77","F7",,,"Wants to read: Pressure"
88709,"R","77","61","23","00 (NACK)",
89071,"W","77","F4","05",,"Sets Data acquisition options".
89072,"W","77","F5","01",,"Sets Configuration".
89073,"W","77","F7",,,"Wants to read: Pressure"
89074,"R","77","61","20","00 (NACK)",
