
AT
AT
AT
AT
AT
AT
AT
AT
AT
AT
AT
AT
AT
AT
AT
AT
AT
AT
AT
AT
AT
AT
AT
AT
AT
AT
AT
AT
AT

OK

+ZEND
ATE0
ATE0

OK
AT+CNMI=0,0,0,0,0

OK
AT+CMGF=1

OK
AT+CIMI

214074302846209

OK
AT+CGSN

356118041377128

OK
AT+CRSM=176,12258,0,0,10

+CRSM: 144,0,"984370120062337403F7"

OK
AT+CGMR

BD_ATTMF206AV1.0.0B13

OK
