10552698-10552765 SPI flash: Commands: Command: Read status register (RDSR)
10552805-10553009 SPI flash: Commands: Read electronic manufacturer & device ID (REMS): Device = Winbond Unknown
10555500-10555566 SPI flash: Commands: Command: Read status register (RDSR)
10555601-10556298 SPI flash: Commands: Read data (addr 0x020000, 16 bytes): ff ff ff ff ff ff ff ff ff ff ff ff ff ff ff ff
10562267-10562470 SPI flash: Commands: Read electronic manufacturer & device ID (REMS): Device = Winbond Unknown
10788253-10788805 SPI flash: Commands: Release from deep powerdown / Read electronic ID (RDP/RES): Device = Winbond Unknown
10789884-10790094 SPI flash: Commands: Command: Read status register (RDSR)
10790419-10792541 SPI flash: Commands: Read data (addr 0x023000, 8 bytes): ff 00 f0 0f ee 11 e1 1e
13044026-13044236 SPI flash: Commands: Command: Read status register (RDSR)
13044494-13049362 SPI flash: Commands: Read data (addr 0x022000, 32 bytes): ff ff ff ff ff ff ff ff ff ff ff ff ff ff ff ff ff ff ff ff ff ff ff ff ff ff ff ff ff ff ff ff
13049595-13049805 SPI flash: Commands: Command: Read status register (RDSR)
13050123-13054632 SPI flash: Commands: Read data (addr 0x022020, 32 bytes): ff ff ff ff ff ff ff ff ff ff ff ff ff ff ff ff ff ff ff ff ff ff ff ff ff ff ff ff ff ff ff ff
14404398-14404608 SPI flash: Commands: Command: Read status register (RDSR)
14404864-14406801 SPI flash: Commands: Read data (addr 0x024000, 8 bytes): 00 01 18 4c 01 01 e9 7f
61498081-61498291 SPI flash: Commands: Command: Read status register (RDSR)
61498548-61501974 SPI flash: Commands: Read data (addr 0x021000, 20 bytes): 00 50 75 74 6f 20 65 6c 20 71 75 65 20 6c 65 65 21 00 f4 e2
