00021000  00 50 75 74 6f 20 65 6c  20 71 75 65 20 6c 65 65  |.Puto el que lee|
00021010  21 00 f4 e2 ff ff ff ff  ff ff ff ff ff ff ff ff  |!...............|
00023000  ff 00 f0 0f ee 11 e1 1e  ff ff ff ff ff ff ff ff  |................|
00024000  00 01 18 4c 01 01 e9 7f  ff ff ff ff ff ff ff ff  |...L............|
00080000
